Book Id,Title,Author,Author l-f,Additional Authors,ISBN,ISBN13,My Rating,Average Rating,Publisher,Binding,Number of Pages,Year Published,Original Publication Year,Date Read,Date Added,Bookshelves,Bookshelves with positions,Exclusive Shelf,My Review,Spoiler,Private Notes,Read Count,Image
35049472,On Power,Robert A. Caro,"Caro, Robert A.",,,,3,3.9,Audible Studios,Audible Audio,,2017,2017,2018/12/23,2018/12/22,nonfiction,,read,,,,1,https://res.cloudinary.com/dwckrw0pp/image/upload/q_auto/tyandor.com/caro-on-power_rvmo0e.jpg
34348320,Martin Luther: The Man Who Rediscovered God and Changed the World,Eric Metaxas,"Metaxas, Eric",,110198001X,9781101980019,4,4.32,Viking,Hardcover,480,2017,2017,,2018/12/19,"theology, history",theology (#2),read,,,,1,https://res.cloudinary.com/dwckrw0pp/image/upload/q_auto/tyandor.com/metaxis-luther_l1bvmb.jpg
4981,Slaughterhouse-Five,Kurt Vonnegut,"Vonnegut, Kurt",,0385333846,9780385333849,4,4.07,Dial Press,Paperback,275,1999,1969,,2018/12/18,fiction,,read,,,,1,https://res.cloudinary.com/dwckrw0pp/image/upload/q_auto/tyandor.com/vonnegut-slaughterhouse-five_dxdkau.jpg
26156469,Never Split the Difference: Negotiating As If Your Life Depended On It,Chris Voss,"Voss, Chris",Tahl Raz,0062407805,9780062407801,5,4.4,HarperBusiness,Hardcover,274,2016,2016,2018/12/16,2018/12/13,nonfiction,nonfiction (#24),read,,,,1,https://res.cloudinary.com/dwckrw0pp/image/upload/q_auto/tyandor.com/voss-never-split-the-difference_onzqme.jpg
29430746,Heavy: An American Memoir,Kiese Laymon,"Laymon, Kiese",,1501125656,9781501125652,5,4.46,Scribner,Hardcover,256,2018,2018,2018/11/25,2018/12/13,nonfiction,nonfiction (#23),read,Perhaps the most aptly titled book I've ever read.,,,1,https://res.cloudinary.com/dwckrw0pp/image/upload/q_auto/tyandor.com/lamon-heavy_fbbkcg.jpg
17333180,"Magic Triumphs (Kate Daniels, #10)",Ilona Andrews,"Andrews, Ilona",,0425270718,9780425270714,4,4.58,Ace,Hardcover,327,2018,2018,,2018/11/19,fantasy,fantasy (#40),read,,,,1,https://res.cloudinary.com/dwckrw0pp/image/upload/q_auto/tyandor.com/andrews-magic-triumphs_xdasot.jpg
840,The Design of Everyday Things,Donald A. Norman,"Norman, Donald A.",,0465067107,9780465067107,5,4.19,Basic Books,Paperback,240,2002,1988,,2018/11/19,design,design (#2),read,,,,1,https://res.cloudinary.com/dwckrw0pp/image/upload/q_auto/tyandor.com/norman-design_nrtjyj.jpg
55401,"Deadhouse Gates (Malazan Book of the Fallen, #2)",Steven Erikson,"Erikson, Steven",Minos Hubert,0765310023,9780765310026,4,4.25,Tor Books,Hardcover,604,2005,2000,,2018/11/01,fantasy,fantasy (#39),read,,,,1,https://res.cloudinary.com/dwckrw0pp/image/upload/q_auto/tyandor.com/erikson-deadhouse-gates_garyky.jpg
55399,"Gardens of the Moon (Malazan Book of the Fallen, #1)",Steven Erikson,"Erikson, Steven",,0765348780,9780765348784,4,3.88,Tor Books,Mass Market Paperback,666,2005,1999,,2018/08/22,fantasy,fantasy (#38),read,,,,1,https://res.cloudinary.com/dwckrw0pp/image/upload/q_auto/tyandor.com/erikson-gardens_dvzla4.jpg
7015403,The Gifts of Imperfection: Let Go of Who You Think You're Supposed to Be and Embrace Who You Are,Brené Brown,"Brown, Brené",,159285849X,9781592858491,5,4.2,Hazelden Publishing,Paperback,138,2010,2010,,2018/08/06,nonfiction,nonfiction (#22),read,,,,1,https://res.cloudinary.com/dwckrw0pp/image/upload/q_auto/tyandor.com/brown-imperfection_usxnsz.jpg
13578175,The Emperor's Soul,Brandon Sanderson,"Sanderson, Brandon",,1616960922,9781616960926,4,4.36,Tachyon Publications,Paperback,175,2012,2012,,2018/08/06,fantasy,fantasy (#37),read,,,,1,https://res.cloudinary.com/dwckrw0pp/image/upload/q_auto/tyandor.com/sanderson-emperors-soul_gphhg2.jpg
68427,"Elantris (Elantris, #1)",Brandon Sanderson,"Sanderson, Brandon",,0765350378,9780765350374,5,4.18,Tor Fantasy,Mass Market Paperback,622,2006,2005,,2018/08/01,fantasy,fantasy (#36),read,,,,1,https://res.cloudinary.com/dwckrw0pp/image/upload/q_auto/tyandor.com/sanderson-elantris_lengox.jpg
35342928,Age of War (The Legends of the First Empire #3),Michael J. Sullivan,"Sullivan, Michael J.",,1101965398,9781101965399,5,4.45,Del Rey Books,Hardcover,420,2018,2018,2018/07/12,2018/03/20,fantasy,fantasy (#35),read,,,,1,https://res.cloudinary.com/dwckrw0pp/image/upload/q_auto/tyandor.com/sullivan-age-of-war_ihawlp.jpg
1268479,"Warbreaker (Warbreaker, #1)",Brandon Sanderson,"Sanderson, Brandon",,,,5,4.25,Self-published,ebook,688,2009,2009,2018/07/06,2018/07/03,fantasy,fantasy (#34),read,,,,1,https://res.cloudinary.com/dwckrw0pp/image/upload/q_auto/tyandor.com/sanderson-warbreaker_sshmjl.jpg
12183815,"Brief Cases (The Dresden Files, #15.1)",Jim Butcher,"Butcher, Jim",,0451492129,9780451492128,5,4.41,Ace,ebook,516,2018,2018,,2018/07/01,fantasy,fantasy (#33),read,,,,1,https://res.cloudinary.com/dwckrw0pp/image/upload/q_auto/tyandor.com/butcher-brief-cases_m3uotc.jpg
3,"Harry Potter and the Sorcerer's Stone (Harry Potter, #1)",J.K. Rowling,"Rowling, J.K.",Mary GrandPré,0439554934,9780439554930,4,4.47,Scholastic Inc,Hardcover,320,1997,1997,,2018/06/14,fantasy,fantasy (#32),read,,,,1,https://res.cloudinary.com/dwckrw0pp/image/upload/q_auto/tyandor.com/rowling-potter_zkyux0.jpg
23271418,Scary Close: Dropping the Act and Finding True Intimacy,Donald Miller,"Miller, Donald",,1501222325,9781501222320,5,4.08,Thomas Nelson on Brilliance Audio,Audio CD,229,2015,2015,,2018/06/12,nonfiction,nonfiction (#21),read,,,,1,https://res.cloudinary.com/dwckrw0pp/image/upload/q_auto/tyandor.com/miller-scary-close_vbkasl.jpg
7711871,Surfaces and Essences: Analogy as the Fuel and Fire of Thinking,Douglas R. Hofstadter,"Hofstadter, Douglas R.",Emmanuel Sander,0465018475,9780465018475,5,3.74,Basic Books,Hardcover,578,2013,2011,2018/06/11,2018/05/16,philosophy,philosophy (#17),read,,,,1,https://res.cloudinary.com/dwckrw0pp/image/upload/q_auto/tyandor.com/hofstadter-sander-surfaces-and-essences_dlhnji.jpg
31817749,"The Stone Sky (The Broken Earth, #3)",N.K. Jemisin,"Jemisin, N.K.",,0356508684,9780356508689,5,4.37,Orbit,Paperback,416,2017,2017,2018/05/16,2018/05/05,fantasy,fantasy (#31),read,,,,1,https://res.cloudinary.com/dwckrw0pp/image/upload/q_auto/tyandor.com/jemisin-the-stone-sky_w77dol.jpg
30831912,Norse Mythology,Neil Gaiman,"Gaiman, Neil",,,,5,4.1,W. W. Norton & Company,Kindle Edition,304,2017,2017,2018/01/16,2018/01/14,mythology,mythology (#2),read,,,,1,https://res.cloudinary.com/dwckrw0pp/image/upload/q_auto/tyandor.com/gaiman-norse-mythology_rknk1p.jpg
26228034,"The Obelisk Gate (The Broken Earth, #2)",N.K. Jemisin,"Jemisin, N.K.",,0356508366,9780356508368,5,4.34,Orbit,Paperback,410,2016,2016,,2018/05/05,fantasy,fantasy (#30),read,,,,1,https://res.cloudinary.com/dwckrw0pp/image/upload/q_auto/tyandor.com/jemisin-obelisk-gate_xc4ib0.jpg
13506217,Gutenberg the Geek,Jeff Jarvis,"Jarvis, Jeff",,,,5,3.63,Amazon Digital Services,Kindle Edition,20,2012,2012,,2018/04/24,nonfiction,nonfiction (#20),read,,,,1,https://res.cloudinary.com/dwckrw0pp/image/upload/q_auto/tyandor.com/jarvis-gutenberg_lx3spt.jpg
17288649,Creative Confidence: Unleashing the Creative Potential Within Us All,Tom Kelley,"Kelley, Tom",David Kelley,038534936X,9780385349369,5,4.04,Crown Business,Hardcover,288,2013,2013,2018/04/24,2018/04/23,nonfiction,nonfiction (#19),read,,,,1,https://res.cloudinary.com/dwckrw0pp/image/upload/q_auto/tyandor.com/kelly-creative-confidence_gddegi.jpg
10353369,"The Whole-Brain Child",Daniel J. Siegel,"Siegel, Daniel J.",Tina Payne Bryson,0553807919,9780553807912,5,4.19,Delacorte Press,Hardcover,192,2011,2011,,2018/04/23,nonfiction,nonfiction (#18),read,,,,1,https://res.cloudinary.com/dwckrw0pp/image/upload/q_auto/tyandor.com/siegel-bryson-whole-brain-child_deyec2.jpg
22693193,Pleasantville,Attica Locke,"Locke, Attica",,0062259407,9780062259400,5,3.85,Harper,Hardcover,432,2015,2015,,2018/03/31,fiction,fiction (#7),read,,,,1,https://res.cloudinary.com/dwckrw0pp/image/upload/q_auto/tyandor.com/locke-pleasantville_x2gv3u.jpg
18288210,No Matter the Wreckage,Sarah Kay,"Kay, Sarah",Sophia Janowitz,1938912489,9781938912481,4,4.26,Write Bloody Publishing,Paperback,143,2014,2014,,2018/03/26,poetry,poetry (#13),read,,,,1,https://res.cloudinary.com/dwckrw0pp/image/upload/q_auto/tyandor.com/kay-wreckage_jklflf.jpg
13838561,Practice Perfect: 42 Rules for Getting Better at Getting Better,Doug Lemov,"Lemov, Doug","Katie Yezzi, Erica Woolway",111821658X,9781118216583,5,3.82,Jossey-Bass,Hardcover,263,2012,2012,,2018/03/16,nonfiction,nonfiction (#17),read,,,,1,https://res.cloudinary.com/dwckrw0pp/image/upload/q_auto/tyandor.com/lemov-practice-perfect_ykebhq.jpg
21348,Aesop's Fables,Aesop,"Aesop, Aesop","Laura Harris, Laura Gibbs",0192840509,9780192840509,5,4.05,Oxford University Press,Paperback,306,2003,-560,2018/03/11,2018/03/04,philosophy,philosophy (#14),read,,,,1,https://res.cloudinary.com/dwckrw0pp/image/upload/q_auto/tyandor.com/aesops-fables_kimw2m.jpg
6214113,Black Water Rising (Jay Porter #1),Attica Locke,"Locke, Attica",,0061735868,9780061735868,5,3.46,Amistad,Hardcover,430,2009,2009,2018/03/09,2018/03/04,fiction,fiction (#6),read,,,,1,https://res.cloudinary.com/dwckrw0pp/image/upload/q_auto/tyandor.com/locke-black-water-rising_ba218i.jpg
851992,Ways of Worldmaking,Nelson Goodman,"Goodman, Nelson",,0915144514,9780915144518,5,3.78,"Hackett Publishing Company, Inc.",Paperback,,1978,1978,2018/03/04,2017/09/14,philosophy,philosophy (#11),read,,,,1,https://res.cloudinary.com/dwckrw0pp/image/upload/q_auto/tyandor.com/goodman-ways-of-worldmaking_ne9rbh.jpg
67939,Bilbo's Last Song,J.R.R. Tolkien,"Tolkien, J.R.R.",Pauline Baynes,0375823735,9780375823732,4,4.12,Alfred A. Knopf,Hardcover,32,2002,1974,,2018/03/04,fiction,fiction (#5),read,,,,1,https://res.cloudinary.com/dwckrw0pp/image/upload/q_auto/tyandor.com/tolkien-bilbos-last-song_j9wurd.jpg
18869130,"The Tales of Chekhov, Volume 3: The Lady with the Dog and Other Stories",Anton Chekhov,"Chekhov, Anton",Constance Garnett,,,5,4.03,,Kindle Edition,138,2012,2008,2018/03/01,2018/03/01,fiction,fiction (#4),read,,,,1,https://res.cloudinary.com/dwckrw0pp/image/upload/q_auto/tyandor.com/chekhov-short-stories-3_ihmbnv.jpg
464260,The Fire Next Time,James Baldwin,"Baldwin, James",,067974472X,9780679744726,5,4.51,Vintage,Paperback,106,1992,1963,2018/02/23,2018/02/22,nonfiction,nonfiction (#14),read,DAMN!,,,1,https://res.cloudinary.com/dwckrw0pp/image/upload/q_auto/tyandor.com/baldwin-the-fire-next-time_ywrwqy.jpg
114609,In the Ravine & Other Short Stories,Anton Chekhov,"Chekhov, Anton",Kenneth Branagh,9626342617,9789626342619,4,3.83,Naxos Audiobooks,Audio CD,3,2002,1970,2018/02/22,2018/02/20,fiction,fiction (#3),read,"There are some great stories in here, but as a collection I would say there are better groupings of Chekhov tales. But it is Chekhov. So, brilliant, insightful, and at times gut wrenching. ",,,1,https://res.cloudinary.com/dwckrw0pp/image/upload/q_auto/tyandor.com/chekhov-in-the-ravine_divbn0.jpg
927979,"Small Favor (The Dresden Files, #10)",Jim Butcher,"Butcher, Jim",,0451461894,9780451461896,5,4.44,Roc,Hardcover,420,2008,2008,2018/02/20,2018/02/18,fantasy,fantasy (#29),read,,,,1,https://res.cloudinary.com/dwckrw0pp/image/upload/q_auto/tyandor.com/butcher-small-favor_f1zgat.jpg
3642343,"Wittgenstein, Empiricism, and Language",John W.  Cook,"Cook, John W.",,019513298X,9780195132984,5,5,"Oxford University Press, USA",Hardcover,240,1999,1999,2018/02/19,2018/02/08,philosophy,philosophy (#13),read,,,,1,https://res.cloudinary.com/dwckrw0pp/image/upload/q_auto/tyandor.com/cook-wittgenstein_s6s6li.jpg
153747,"Moby-Dick, or, the Whale",Herman Melville,"Melville, Herman","Andrew Delbanco, Tom Quirk",0142437247,9780142437247,5,3.49,Penguin Classics,Paperback,654,2003,1851,2018/02/18,2018/02/08,fiction,fiction (#2),read,,,,1,https://res.cloudinary.com/dwckrw0pp/image/upload/q_auto/tyandor.com/melville-moby-dick_duzzfy.webp
2195464,What I Talk About When I Talk About Running,Haruki Murakami,"Murakami, Haruki",Philip Gabriel,0307269191,9780307269195,4,3.83,Knopf Publishing Group,Hardcover,188,2008,2007,2018/02/08,2018/02/07,nonfiction,,read,,,,1,https://res.cloudinary.com/dwckrw0pp/image/upload/q_auto/tyandor.com/murakami-running_zv0sdk.jpg
5659,The Wind in the Willows,Kenneth Grahame,"Grahame, Kenneth",Gillian Avery,0143039091,9780143039099,5,3.99,Penguin Books,Paperback,256,2005,1908,,2018/02/06,children-s,children-s (#1),read,,,,1,https://res.cloudinary.com/dwckrw0pp/image/upload/q_auto/tyandor.com/grahame-wind-in-the-willows_n6kwrv.jpg
28503713,The Rain in Portugal: New Poems,Billy Collins,"Collins, Billy",,0679644067,9780679644064,5,4.02,Random House,Hardcover,160,2016,2016,2018/02/03,2017/09/14,poetry,,read,,,,1,https://res.cloudinary.com/dwckrw0pp/image/upload/q_auto/tyandor.com/collins-rain-in-portugal_x2n4cn.jpg
6792458,The New Jim Crow: Mass Incarceration in the Age of Colorblindness,Michelle Alexander,"Alexander, Michelle",,1595581030,9781595581037,5,4.52,The New Press,Hardcover,290,2010,2010,2018/02/01,2018/01/29,nonfiction,nonfiction (#13),read,,,,1,https://res.cloudinary.com/dwckrw0pp/image/upload/q_auto/tyandor.com/alexander-new-jim-crow_y1f1e6.jpg
95747,The Miracle of Mindfulness,Thich Nhat Hanh,"Hanh, Thich Nhat",Mobi Ho,0807012394,9780807012390,4,4.26,Beacon Press,Paperback,140,1999,1975,,2018/01/28,nonfiction,nonfiction (#12),read,,,,1,https://res.cloudinary.com/dwckrw0pp/image/upload/q_auto/tyandor.com/hanh-mindfulness_pdnwvg.jpg
29939230,"A Conjuring of Light (Shades of Magic, #3)",V.E. Schwab,"Schwab, V.E.",,0765387468,9780765387462,5,4.39,Tor Books,Hardcover,624,2017,2017,2018/01/27,2018/01/16,,,read,,,,1,https://res.cloudinary.com/dwckrw0pp/image/upload/q_auto/tyandor.com/schwab-conjuring-of-light_sam84t.jpg
34002132,"Oathbringer (The Stormlight Archive, #3)",Brandon Sanderson,"Sanderson, Brandon",,076532637X,9780765326379,5,4.64,Tor Books,Hardcover,1248,2017,2017,2018/01/12,2017/12/23,,,read,,,,1,https://res.cloudinary.com/dwckrw0pp/image/upload/q_auto/tyandor.com/sanderson-oathbringer_tqxsia.jpg
